# ë§ˆì»¤ í”¼ë“œ API í…ŒìŠ¤íŠ¸ ëª…ë ¹ì–´
# ì‹œê°„ìˆœ ë‚´ë¦¼ì°¨ìˆœìœ¼ë¡œ ë§ˆì»¤ë¥¼ ì¡°íšŒí•˜ëŠ” í”¼ë“œìš© API

## 1. ê¸°ë³¸ í”¼ë“œ ì¡°íšŒ (ìµœì‹  ë§ˆì»¤ 20ê°œ)
# GET /api/markers/feed
curl -X GET "http://localhost:8000/api/markers/feed" \
  -H "Content-Type: application/json"

## 2. í˜ì´ì§€ë„¤ì´ì…˜ì„ ì‚¬ìš©í•œ í”¼ë“œ ì¡°íšŒ
# GET /api/markers/feed?page=1&limit=10
curl -X GET "http://localhost:8000/api/markers/feed?page=1&limit=10" \
  -H "Content-Type: application/json"

# ë‘ ë²ˆì§¸ í˜ì´ì§€ ì¡°íšŒ
curl -X GET "http://localhost:8000/api/markers/feed?page=2&limit=10" \
  -H "Content-Type: application/json"

## 3. ê°ì„± íƒœê·¸ë¡œ í•„í„°ë§ëœ í”¼ë“œ ì¡°íšŒ
# GET /api/markers/feed?emotion_tags=í–‰ë³µ,ê¸°ì¨
curl -X GET "http://localhost:8000/api/markers/feed?emotion_tags=í–‰ë³µ,ê¸°ì¨" \
  -H "Content-Type: application/json"

# ë‹¨ì¼ ê°ì„± íƒœê·¸
curl -X GET "http://localhost:8000/api/markers/feed?emotion_tags=ğŸ˜Š" \
  -H "Content-Type: application/json"

## 4. ìµœì†Œ ì¢‹ì•„ìš” ìˆ˜ë¡œ í•„í„°ë§
# GET /api/markers/feed?min_likes=5
curl -X GET "http://localhost:8000/api/markers/feed?min_likes=5" \
  -H "Content-Type: application/json"

## 5. ìµœì†Œ ì¡°íšŒìˆ˜ë¡œ í•„í„°ë§
# GET /api/markers/feed?min_views=10
curl -X GET "http://localhost:8000/api/markers/feed?min_views=10" \
  -H "Content-Type: application/json"

## 6. íŠ¹ì • ì‚¬ìš©ìì˜ ë§ˆì»¤ë§Œ ì¡°íšŒ
# GET /api/markers/feed?user_id=1
curl -X GET "http://localhost:8000/api/markers/feed?user_id=1" \
  -H "Content-Type: application/json"

## 7. ë³µí•© ì¡°ê±´ìœ¼ë¡œ í•„í„°ë§
# GET /api/markers/feed?page=1&limit=15&emotion_tags=í–‰ë³µ&min_likes=3&min_views=5
curl -X GET "http://localhost:8000/api/markers/feed?page=1&limit=15&emotion_tags=í–‰ë³µ&min_likes=3&min_views=5" \
  -H "Content-Type: application/json"

## 8. íŠ¹ì • ì‚¬ìš©ìì˜ ì¸ê¸° ë§ˆì»¤ ì¡°íšŒ
# GET /api/markers/feed?user_id=1&min_likes=10&limit=20
curl -X GET "http://localhost:8000/api/markers/feed?user_id=1&min_likes=10&limit=20" \
  -H "Content-Type: application/json"

## 9. íŠ¹ì • ê°ì„±ì˜ ì¸ê¸° ë§ˆì»¤ ì¡°íšŒ
# GET /api/markers/feed?emotion_tags=ğŸ˜&min_likes=20&min_views=50&limit=30
curl -X GET "http://localhost:8000/api/markers/feed?emotion_tags=ğŸ˜&min_likes=20&min_views=50&limit=30" \
  -H "Content-Type: application/json"

## 10. ì „ì²´ ë§ˆì»¤ ê°œìˆ˜ í™•ì¸ (limit=1ë¡œ ë¹ ë¥¸ í™•ì¸)
# GET /api/markers/feed?limit=1
curl -X GET "http://localhost:8000/api/markers/feed?limit=1" \
  -H "Content-Type: application/json"

## ì‘ë‹µ ì˜ˆì‹œ

### ì„±ê³µ ì‘ë‹µ
{
  "success": true,
  "data": [
    {
      "id": 1,
      "memberId": 1,
      "latitude": 37.5665,
      "longitude": 126.9780,
      "emotionTag": "ğŸ˜Š",
      "description": "ì„œìš¸ì—ì„œ í–‰ë³µí•œ ìˆœê°„",
      "likes": 15,
      "dislikes": 2,
      "views": 120,
      "author": "ì‚¬ìš©ìëª…",
      "thumbnailImg": "https://example.com/thumbnail.jpg",
      "createdAt": "2024-01-15T10:30:00Z",
      "updatedAt": "2024-01-15T10:30:00Z",
      "images": [
        {
          "id": 1,
          "markerId": 1,
          "imageType": "thumbnail",
          "imageUrl": "https://example.com/image1.jpg",
          "imageOrder": 0,
          "isPrimary": true,
          "createdAt": "2024-01-15T10:30:00Z",
          "updatedAt": "2024-01-15T10:30:00Z"
        },
        {
          "id": 2,
          "markerId": 1,
          "imageType": "gallery",
          "imageUrl": "https://example.com/image2.jpg",
          "imageOrder": 1,
          "isPrimary": false,
          "createdAt": "2024-01-15T10:30:00Z",
          "updatedAt": "2024-01-15T10:30:00Z"
        }
      ]
    }
  ],
  "pagination": {
    "currentPage": 1,
    "totalPages": 5,
    "totalCount": 100,
    "limit": 20,
    "hasNext": true,
    "hasPrev": false
  },
  "count": 20
}

### ì—ëŸ¬ ì‘ë‹µ
{
  "success": false,
  "message": "í”¼ë“œ ë§ˆì»¤ ì¡°íšŒ ì‹¤íŒ¨: ë°ì´í„°ë² ì´ìŠ¤ ì˜¤ë¥˜"
}

## ì¿¼ë¦¬ íŒŒë¼ë¯¸í„° ì„¤ëª…

- `page`: í˜ì´ì§€ ë²ˆí˜¸ (ê¸°ë³¸ê°’: 1)
- `limit`: í˜ì´ì§€ë‹¹ ë§ˆì»¤ ê°œìˆ˜ (ê¸°ë³¸ê°’: 20, ìµœëŒ€: 100)
- `emotion_tags`: ê°ì„± íƒœê·¸ í•„í„° (ì‰¼í‘œë¡œ êµ¬ë¶„)
- `min_likes`: ìµœì†Œ ì¢‹ì•„ìš” ìˆ˜
- `min_views`: ìµœì†Œ ì¡°íšŒìˆ˜
- `user_id`: íŠ¹ì • ì‚¬ìš©ìì˜ ë§ˆì»¤ë§Œ ì¡°íšŒ

## íŠ¹ì§•

1. **ì‹œê°„ìˆœ ì •ë ¬**: ìµœì‹  ë§ˆì»¤ê°€ ë¨¼ì € ë‚˜ì˜´ (created_at DESC)
2. **í˜ì´ì§€ë„¤ì´ì…˜**: ëŒ€ëŸ‰ì˜ ë§ˆì»¤ë¥¼ íš¨ìœ¨ì ìœ¼ë¡œ ì¡°íšŒ
3. **ì´ë¯¸ì§€ í¬í•¨**: ê° ë§ˆì»¤ì˜ ëª¨ë“  ì´ë¯¸ì§€ ì •ë³´ í¬í•¨
4. **í•„í„°ë§**: ê°ì„± íƒœê·¸, ì¢‹ì•„ìš” ìˆ˜, ì¡°íšŒìˆ˜, ì‚¬ìš©ìë³„ í•„í„°ë§
5. **ë©”íƒ€ë°ì´í„°**: ì „ì²´ ê°œìˆ˜, í˜ì´ì§€ ì •ë³´ ë“± í¬í•¨ 